Stat 480 - Homework #9
…
In class we discussed two instances where a movie was released under the same name as a different movie previously. Identify at least one more instance of a movie where that happened. Report the name of the movie, search online for additional information. Describe the strategy you used to identify this movie, report the code involved.

movies <- box %>% 
  group_by(Movie, Distributor) %>% 
  summarise(
    firstDate = Date[which.min(Week)], 
    firstWeek = min(Week, na.rm=TRUE))

movies %>% 
  group_by(Movie) %>% 
  mutate(n = n()) %>% 
  filter(n>1) %>% 
  arrange(desc(n))

## # A tibble: 56 x 5
## # Groups:   Movie [28]
##    Movie                Distributor            firstDate  firstWeek     n
##    <chr>                <chr>                  <date>         <dbl> <int>
##  1 Beauty and the Beast Lopert Pictures Cor... 2016-02-12         1     2
##  2 Beauty and the Beast Walt Disney            2017-03-17         1     2
##  3 Breathe              Bleecker Street        2017-10-13         1     2
##  4 Breathe              Film Movement          2015-09-11         1     2
##  5 Champion             ArtAffects             2017-05-26         2     2
##  6 Champion             Well Go USA            2018-05-11         1     2
##  7 Concussion           Radius                 2013-10-04         1     2
##  8 Concussion           Sony Pictures          2015-12-25         1     2
##  9 Entertainment        B4U Movies             2014-08-08         1     2
## 10 Entertainment        Magnolia Pictures      2015-11-13         1     2
## #  with 46 more rows
…
For the variables Per.Thtr. and Change compare the original variables and the newly derived ones. Are there differences? Where? Try to describe patterns you find.

new_box %>% 
  group_by(Movie, Distributor)  %>%  
  mutate(per_theater_diffs = Per.Thtr. - per_theater) %>% 
  summarise(max_diff = max(per_theater_diffs, na.rm = TRUE)) %>% 
  arrange(desc(max_diff))

## # A tibble: 4,172 x 3
## # Groups:   Movie [4,144]
##    Movie                          Distributor            max_diff
##    <chr>                          <chr>                     <dbl>
##  1 1,000 Times Goodnight          Film Movement                 1
##  2 1945                           Menemsha Entertainment        1
##  3 20 Feet From Stardom           RADiUS-TWC                    1
##  4 20,000 Days on Earth           Drafthouse Films              1
##  5 2019 Oscar Shorts              ShortsHD                      1
##  6 3 Faces                        Kino Lorber                   1
##  7 30 Years of Garbage: The Ga... Indican Pictures              1
##  8 50 to 1                        Ten Furlongs                  1
##  9 56 Up                          First Run Features            1
## 10 7 Witches                      Indican Pictures              1
## #  with 4,162 more rows

The only differences in the original and newly derived Per.Thtr. variables look to be rounding errors.

new_box %>% 
  group_by(Movie, Distributor)  %>%  
  mutate(change_diffs = Change - change) %>% 
  summarise(max_diff = max(change_diffs, na.rm = TRUE)) %>% 
  arrange(desc(max_diff))

## # A tibble: 4,172 x 3
## # Groups:   Movie [4,144]
##    Movie                          Distributor         max_diff
##    <chr>                          <chr>                  <dbl>
##  1 Tracks                         Weinstein Co.          26755
##  2 Not Today                      Freestyle Releasing      813
##  3 Phoenix, Oregon                Joma Films               648
##  4 K2: Siren of the Himalayas     First Run Features       248
##  5 The 100-Year-Old Man Who Cl... Music Box Films          151
##  6 Inequality for All             RADiUS-TWC               138
##  7 Watermark                      Entertainment One        129
##  8 The Hunger Games: Mockingja... Lionsgate                115
##  9 Boy Meets Girl                 Bramacharia LLC          108
## 10 Gemma Bovery                   Music Box Films           76
## #  with 4,162 more rows

new_box %>% 
  filter(Movie == "Tracks") %>% 
  arrange(Week) %>% 
  select(Date, Week, Rank, Rank.Last.Week, rank_last_week, Gross, Change, change, Per.Thtr., per_theater, Total.Gross, total_gross)

## # A tibble: 22 x 14
## # Groups:   Movie, Distributor [1]
##    Movie Distributor Date        Week  Rank Rank.Last.Week rank_last_week Gross
##    <chr> <chr>       <date>     <dbl> <dbl>          <dbl>          <dbl> <dbl>
##  1 Trac Weinstein  2014-09-19     1    NA             NA             NA   260
##  2 Trac Weinstein  2014-08-29     1    86             NA             NA  1213
##  3 Trac Weinstein  2014-06-06     1    62             NA             NA 13285
##  4 Trac Weinstein  2014-09-26     2    40             NA             62 70951
##  5 Trac Weinstein  2014-06-13     2    59             62             NA 15995
##  6 Trac Weinstein  2014-10-03     3    36             40             59 92899
##  7 Trac Weinstein  2014-06-20     3    54             59             NA 17049
##  8 Trac Weinstein  2014-10-10     4    45             36             54 64381
##  9 Trac Weinstein  2014-06-27     4    55             54             NA 22670
## 10 Trac Weinstein  2014-10-17     5    52             45             55 34563
## #  with 12 more rows, and 6 more variables: Change <dbl>, change <dbl>,
## #   Per.Thtr. <dbl>, per_theater <dbl>, Total.Gross <dbl>, total_gross <dbl>
…
Find the rank of movies by total gross in each year.

Filter the top three movies.

new_box %>% 
  separate(Date, into = c("year", "month", "date"), remove = FALSE) %>% 
  group_by(year, Movie) %>% 
  summarise(Total.Gross.Max = max(Total.Gross)) %>% 
  arrange(desc(year), desc(Total.Gross.Max)) %>% 
  group_by(year) %>% 
  mutate(rank = min_rank(desc(Total.Gross.Max))) %>% 
  arrange(desc(year), rank) %>% 
  filter(rank < 4)

## # A tibble: 21 x 4
## # Groups:   year [7]
##    year  Movie                          Total.Gross.Max  rank
##    <chr> <chr>                                    <dbl> <int>
##  1 2019  Avengers: Endgame                    858366365     1
##  2 2019  The Lion King                        542287663     2
##  3 2019  Toy Story 4                          433560473     3
##  4 2018  Black Panther                        700006415     1
##  5 2018  Avengers: Infinity War               678809000     2
##  6 2018  Star Wars Ep. VIII: The Las...       620178595     3
##  7 2017  Titanic                              659328801     1
##  8 2017  Rogue One: A Star Wars Story         532171696     2
##  9 2017  Star Wars Ep. VIII: The Las...       517218368     3
## 10 2016  Star Wars Ep. VII: The Forc...       936658640     1
## #  with 11 more rows
